{
  "NotebookApp.OAuth": {
    "commandName": "Project",
    "launchBrowser": true,
    "environmentVariables": {
      "ASPNETCORE_ENVIRONMENT": "Development"
    },
    "applicationUrl": "http://localhost:53389/"
  },
  "profiles": {
    "NotebookApp.OAuth": {
      "commandName": "Project",
      "applicationUrl": "localhost:5000"
    }
  }
}